resolver,addressLine1,addressLine2,addressLine3,addressLine4,addressLine5,addressLine6,postalCode,countryCode,lineOfBusiness,pointOfRequest,insurerABICode,scoreThreshold,cridConfiguration,lexIDOnly,title,forename,middleNames,surname,dateOfBirth
lexId,1 MAESMYRNACH COUNCIL HOUSES,YORK,,,,,GL170LH,,PM,POS,LNIL01,95,N,N,Mr,ABBAS,,HOWES,1983-01-17
lexId,1 MAESMYRNACH COUNCIL HOUSES,YORK,,,,,GL170LH,,PM,POS,LNIL01,95,N,N,Mr,ABBAS,,HOWES,1983-01-17
lexId,1 MAESMYRNACH COUNCIL HOUSES,YORK,,,,,GL170LH,,PM,POS,LNIL01,95,N,N,Mr,ABBAS,,HOWES,1983-01-17
lexId,1 MAESMYRNACH COUNCIL HOUSES,YORK,,,,,GL170LH,,PM,POS,LNIL01,95,N,N,Mr,ABBAS,,HOWES,1983-01-17